{
  "orders": [
    {
      "id": 1,
      "price": 20000,
      "transfers": [
        {
          "type": "pay_in",
          "from": "client",
          "to": "order",
          "amount": 20000
        },
        {
          "type": "transfer",
          "from": "order",
          "to": "lawyer",
          "amount": 13500
        },
        {
          "type": "transfer",
          "from": "lawyer",
          "to": "captain",
          "amount": 6500
        },
        {
          "type": "transfer",
          "from": "order",
          "to": "captain",
          "amount": 0
        }
      ]
    },
    {
      "id": 2,
      "price": 11050,
      "transfers": [
        {
          "type": "pay_in",
          "from": "client",
          "to": "order",
          "amount": 11050
        },
        {
          "type": "transfer",
          "from": "order",
          "to": "lawyer",
          "amount": 7550
        },
        {
          "type": "transfer",
          "from": "lawyer",
          "to": "captain",
          "amount": 0
        },
        {
          "type": "transfer",
          "from": "order",
          "to": "captain",
          "amount": 3500
        }
      ]
    },
    {
      "id": 3,
      "price": 30000,
      "transfers": [
        {
          "type": "pay_in",
          "from": "client",
          "to": "order",
          "amount": 30000
        },
        {
          "type": "transfer",
          "from": "order",
          "to": "lawyer",
          "amount": 21000
        },
        {
          "type": "transfer",
          "from": "lawyer",
          "to": "captain",
          "amount": 9000
        },
        {
          "type": "transfer",
          "from": "order",
          "to": "captain",
          "amount": 0
        }
      ]
    },
    {
      "id": 4,
      "price": 16050,
      "transfers": [
        {
          "type": "pay_in",
          "from": "client",
          "to": "order",
          "amount": 16050
        },
        {
          "type": "transfer",
          "from": "order",
          "to": "lawyer",
          "amount": 9550
        },
        {
          "type": "transfer",
          "from": "lawyer",
          "to": "captain",
          "amount": 0
        },
        {
          "type": "transfer",
          "from": "order",
          "to": "captain",
          "amount": 6500
        }
      ]
    },
    {
      "id": 5,
      "price": 25000,
      "transfers": [
        {
          "type": "pay_in",
          "from": "client",
          "to": "order",
          "amount": 25000
        },
        {
          "type": "transfer",
          "from": "order",
          "to": "lawyer",
          "amount": 21000
        },
        {
          "type": "transfer",
          "from": "lawyer",
          "to": "captain",
          "amount": 4000
        },
        {
          "type": "transfer",
          "from": "order",
          "to": "captain",
          "amount": 0
        }
      ]
    }
  ]
}